('/Users/gus/Documents/P-Projects/gen-v-02/build/oof/PKG-00.pkg',
 {'BINARY': 1,
  'DATA': 1,
  'EXECUTABLE': 1,
  'EXTENSION': 1,
  'PYMODULE': 1,
  'PYSOURCE': 1,
  'PYZ': 0},
 [('PYZ-00.pyz',
   '/Users/gus/Documents/P-Projects/gen-v-02/build/oof/PYZ-00.pyz',
   'PYZ'),
  ('_struct',
   '/Library/Frameworks/Python.framework/Versions/2.7/lib/python2.7/lib-dynload/_struct.so',
   'EXTENSION'),
  ('zlib',
   '/Library/Frameworks/Python.framework/Versions/2.7/lib/python2.7/lib-dynload/zlib.so',
   'EXTENSION'),
  ('struct',
   '/Library/Frameworks/Python.framework/Versions/2.7/lib/python2.7/struct.pyc',
   'PYMODULE'),
  ('pyimod01_os_path',
   '/Library/Frameworks/Python.framework/Versions/2.7/lib/python2.7/site-packages/PyInstaller/loader/pyimod01_os_path.pyc',
   'PYMODULE'),
  ('pyimod02_archive',
   '/Library/Frameworks/Python.framework/Versions/2.7/lib/python2.7/site-packages/PyInstaller/loader/pyimod02_archive.pyc',
   'PYMODULE'),
  ('pyimod03_importers',
   '/Library/Frameworks/Python.framework/Versions/2.7/lib/python2.7/site-packages/PyInstaller/loader/pyimod03_importers.pyc',
   'PYMODULE'),
  ('pyiboot01_bootstrap',
   '/Library/Frameworks/Python.framework/Versions/2.7/lib/python2.7/site-packages/PyInstaller/loader/pyiboot01_bootstrap.py',
   'PYSOURCE'),
  ('pyi_rth__tkinter',
   '/Library/Frameworks/Python.framework/Versions/2.7/lib/python2.7/site-packages/PyInstaller/loader/rthooks/pyi_rth__tkinter.py',
   'PYSOURCE'),
  ('oof', '/Users/gus/Documents/P-Projects/gen-v-02/oof.py', 'PYSOURCE')],
 True,
 False,
 False)
